[
  {
    "id": "nightlies",
    "pluginId": "nightlies",
    "paymentTypes": [
      "crypto"
    ],
    "description": "Explore tonight's entertainment",
    "title": "Nightlies",
    "partnerIconPath": "https://i.imgur.com/4fy2l9U.png",
    "forCountries": [
      "US"
    ],
    "cryptoCodes": [
      "BCH"
    ],
    "paymentTypeLogoKey": "nightlies"
  },
  {
    "id": "parler",
    "pluginId": "parler",
    "paymentTypes": [
      "crypto"
    ],
    "description": "Free Speech Social Network",
    "title": "Parler",
    "partnerIconPath": "https://i.imgur.com/9Kyp7cl.png",
    "forCountries": [
      "US"
    ],
    "cryptoCodes": [
      "BCH",
    ],
    "paymentTypeLogoKey": "parler"
  },
  {
    "id": "mul8",
    "pluginId": "mul8",
    "paymentTypes": [
      "crypto"
    ],
    "description": "Play an epic collection of ROMs",
    "title": "MUL8",
    "partnerIconPath": "https://i.imgur.com/4fy2l9U.png",
    "forCountries": [
      "US"
    ],
    "cryptoCodes": [
      "BCH"
    ],
    "paymentTypeLogoKey": "mul8"
  },
  {
    "id": "tradingpost",
    "pluginId": "tradingpost",
    "paymentTypes": [
      "crypto"
    ],
    "description": "Trade anything for anything",
    "title": "Trading Post",
    "partnerIconPath": "https://i.imgur.com/9Kyp7cl.png",
    "forCountries": [
      "US"
    ],
    "cryptoCodes": [
      "BCH",
      "BTC",
      "USDT",
      "BAI",
      "and more..."
    ],
    "paymentTypeLogoKey": "merchant",
    "deepQuery": {
      "country": "US"
    }
  },
  {
    "id": "popcorntime",
    "pluginId": "popcorntime",
    "paymentTypes": [
      "crypto"
    ],
    "description": "Watch movies and TV shows instantly",
    "title": "Popcorn Time",
    "partnerIconPath": "https://i.imgur.com/4fy2l9U.png",
    "forCountries": [
      "US"
    ],
    "cryptoCodes": [
        "BCH",
        "BTC",
        "USDT",
        "BAI",
        "and more..."
    ],
    "paymentTypeLogoKey": "popcorntime"
  },
  {
    "id": "localcryptos",
    "pluginId": "localcryptos",
    "paymentTypes": [
      "crypto"
    ],
    "description": "Non-custodial crypto marketplace",
    "title": "Local Cryptos",
    "partnerIconPath": "https://i.imgur.com/9Kyp7cl.png",
    "forCountries": [
      "US"
    ],
    "cryptoCodes": [
      "BCH",
      "BTC",
      "USDT",
      "BAI",
      "and more..."
    ],
    "paymentTypeLogoKey": "localcryptos"
  },
  {
    "id": "blender",
    "pluginId": "blender",
    "paymentTypes": [
      "crypto"
    ],
    "description": "Turn your finances incognito",
    "title": "Blender",
    "partnerIconPath": "https://i.imgur.com/9Kyp7cl.png",
    "forCountries": [
      "US"
    ],
    "cryptoCodes": [
      "BCH",
      "BTC",
      "USDT",
      "BAI",
      "and more..."
    ],
    "paymentTypeLogoKey": "blender"
  },
  "----- iOS specifics -----",
  "----- Country Specifics -----",
  {
    "id": "bits of gold",
    "forCountries": [
      "IL"
    ],
    "sortIndex": 2,
    "title": "Israeli Bank Transfer",
    "description": "Fee: 6.95% / Settlement: 1 - 48hours\nLevel 1 Limit: €10000/day\nLevel 2 Limit: Unlimited"
  },
  {
    "id": "safello.bank",
    "forCountries": [
      "SE"
    ],
    "paymentTypeLogoKey": "bankgirot",
    "title": "Bankgiro"
  },
  {
    "id": "safello.bank",
    "forCountries": [
      "DK"
    ],
    "title": "DKK Bank Transfer"
  },
  {
    "id": "bitaccess",
    "forCountries": [
      "CA"
    ],
    "deepQuery": {
      "country": "CA"
    }
  },
  {
    "id": "bitaccess",
    "forCountries": [
      "HR"
    ],
    "deepQuery": {
      "country": "HR"
    }
  },
  {
    "id": "bitaccess",
    "forCountries": [
      "NL"
    ],
    "deepQuery": {
      "country": "NL"
    }
  },
  {
    "id": "bitaccess",
    "forCountries": [
      "NG"
    ],
    "deepQuery": {
      "country": "NG"
    }
  },
  {
    "id": "bitaccess",
    "forCountries": [
      "ES"
    ],
    "deepQuery": {
      "country": "ES"
    }
  },
  {
    "id": "bitaccess",
    "forCountries": [
      "GB"
    ],
    "deepQuery": {
      "country": "GB"
    }
  },
  {
    "id": "bitaccess",
    "forCountries": [
      "CH"
    ],
    "deepQuery": {
      "country": "CH"
    }
  },
  {
    "id": "bitaccess",
    "forCountries": [
      "VN"
    ],
    "deepQuery": {
      "country": "VN"
    }
  }
]
